ALL0003.CSV

Format,2.0E,
Memory Length,10000,Memory Length,10000,
IntpDistance,0,IntpDistance,0,
Trigger Address,4949,Trigger Address,4949,
Trigger Level,1.480E+01,Trigger Level,1.480E+01,
Source,CH1,Source,CH2,
Vertical Units,V,Vertical Units,V,
Vertical Units Div,0,Vertical Units Div,0,
Vertical Units Extend Div,16,Vertical Units Extend Div,16,
Label, ,Label, ,
Probe Type,0,Probe Type,0,
Probe Ratio,1.000E+00,Probe Ratio,1.000E+00,
Vertical Scale,5.000E-01,Vertical Scale,1.000E+01,
Vertical Position,-4.000E-02,Vertical Position,0.000E+00,
Horizontal Units,S,Horizontal Units,S,
Horizontal Scale,2.000E-02,Horizontal Scale,2.000E-02,
Horizontal Position,1.000E-03,Horizontal Position,1.000E-03,
Horizontal Mode,Main,Horizontal Mode,Main,
SincET Mode,Real Time,SincET Mode,Real Time,
Sampling Period,2.000E-05,Sampling Period,2.000E-05,
Horizontal Old Scale,2.000E-02,Horizontal Old Scale,2.000E-02,
Horizontal Old Position,1.000E-03,Horizontal Old Position,1.000E-03,
Firmware,V1.34,Firmware,V1.34,
Time,15-Jul-23 21:30:18,Time,15-Jul-23 21:30:18,
Mode,Detail,Mode,Detail,
Waveform Data,,Waveform Data,,
-9.899999e-02,-0.160000,-9.899999e-02,-32.400000,
-9.897999e-02,-0.140000,-9.897999e-02,-32.400000,
-9.895999e-02,-0.140000,-9.895999e-02,-32.400000,
-9.893999e-02,-0.140000,-9.893999e-02,-32.400000,
-9.891999e-02,-0.140000,-9.891999e-02,-32.400000,
-9.889999e-02,-0.140000,-9.889999e-02,-32.400000,
-9.887999e-02,-0.120000,-9.887999e-02,-32.800000,
-9.885999e-02,-0.140000,-9.885999e-02,-32.800000,
-9.883999e-02,-0.140000,-9.883999e-02,-32.800000,
-9.881999e-02,-0.120000,-9.881999e-02,-32.800000,
-9.879999e-02,-0.120000,-9.879999e-02,-32.800000,
-9.877999e-02,-0.120000,-9.877999e-02,-32.800000,
-9.875999e-02,-0.120000,-9.875999e-02,-32.800000,
-9.873999e-02,-0.100000,-9.873999e-02,-32.800000,
-9.871999e-02,-0.100000,-9.871999e-02,-32.800000,
-9.869999e-02,-0.120000,-9.869999e-02,-33.199999,
-9.867999e-02,-0.100000,-9.867999e-02,-33.199999,
-9.865999e-02,-0.120000,-9.865999e-02,-33.199999,
-9.863999e-02,-0.120000,-9.863999e-02,-33.199999,
-9.861999e-02,-0.100000,-9.861999e-02,-33.199999,
-9.859999e-02,-0.120000,-9.859999e-02,-33.199999,
-9.857999e-02,-0.120000,-9.857999e-02,-33.199999,
-9.855999e-02,-0.120000,-9.855999e-02,-33.199999,
-9.853999e-02,-0.100000,-9.853999e-02,-33.199999,
-9.851999e-02,-0.100000,-9.851999e-02,-33.199999,
-9.849999e-02,-0.120000,-9.849999e-02,-33.599999,
-9.847999e-02,-0.080000,-9.847999e-02,-33.199999,
-9.845999e-02,-0.100000,-9.845999e-02,-33.599999,
-9.843999e-02,-0.100000,-9.843999e-02,-33.599999,
-9.841999e-02,-0.100000,-9.841999e-02,-33.599999,
-9.839999e-02,-0.100000,-9.839999e-02,-33.599999,
-9.837999e-02,-0.100000,-9.837999e-02,-33.599999,
-9.835999e-02,-0.100000,-9.835999e-02,-33.599999,
-9.833999e-02,-0.080000,-9.833999e-02,-34.000001,
-9.831999e-02,-0.100000,-9.831999e-02,-33.599999,
-9.829999e-02,-0.120000,-9.829999e-02,-33.599999,
-9.827999e-02,-0.080000,-9.827999e-02,-34.000001,
-9.825999e-02,-0.100000,-9.825999e-02,-34.000001,
-9.823999e-02,-0.100000,-9.823999e-02,-34.000001,
-9.821999e-02,-0.100000,-9.821999e-02,-33.599999,
-9.819999e-02,-0.080000,-9.819999e-02,-34.000001,
-9.817999e-02,-0.100000,-9.817999e-02,-34.000001,
-9.815999e-02,-0.100000,-9.815999e-02,-34.000001,
-9.813999e-02,-0.080000,-9.813999e-02,-34.000001,
-9.811999e-02,-0.080000,-9.811999e-02,-34.000001,
-9.809999e-02,-0.100000,-9.809999e-02,-34.000001,
-9.807999e-02,-0.080000,-9.807999e-02,-34.000001,
-9.805999e-02,-0.080000,-9.805999e-02,-34.400001,
-9.803999e-02,-0.100000,-9.803999e-02,-34.400001,
-9.801999e-02,-0.100000,-9.801999e-02,-34.400001,
-9.799999e-02,-0.080000,-9.799999e-02,-34.000001,
-9.797999e-02,-0.100000,-9.797999e-02,-34.400001,
-9.795999e-02,-0.100000,-9.795999e-02,-34.400001,
-9.793999e-02,-0.080000,-9.793999e-02,-34.400001,
-9.791999e-02,-0.080000,-9.791999e-02,-34.400001,
-9.789999e-02,-0.100000,-9.789999e-02,-34.400001,
-9.787999e-02,-0.080000,-9.787999e-02,-34.400001,
-9.785999e-02,-0.080000,-9.785999e-02,-34.400001,
-9.783999e-02,-0.100000,-9.783999e-02,-34.400001,
-9.781999e-02,-0.080000,-9.781999e-02,-34.800000,
-9.779999e-02,-0.060000,-9.779999e-02,-34.800000,
-9.777999e-02,-0.080000,-9.777999e-02,-34.400001,
-9.775999e-02,-0.080000,-9.775999e-02,-34.800000,
-9.773999e-02,-0.060000,-9.773999e-02,-34.800000,
-9.771999e-02,-0.060000,-9.771999e-02,-34.800000,
-9.769999e-02,-0.080000,-9.769999e-02,-34.800000,
-9.767999e-02,-0.080000,-9.767999e-02,-34.800000,
-9.765999e-02,-0.060000,-9.765999e-02,-34.800000,
-9.763999e-02,-0.080000,-9.763999e-02,-34.800000,
-9.761999e-02,-0.080000,-9.761999e-02,-34.800000,
-9.759999e-02,-0.060000,-9.759999e-02,-34.800000,
-9.757999e-02,-0.060000,-9.757999e-02,-34.800000,
-9.755999e-02,-0.080000,-9.755999e-02,-34.800000,
-9.753999e-02,-0.060000,-9.753999e-02,-34.800000,
-9.751999e-02,-0.040000,-9.751999e-02,-35.200000,
-9.749999e-02,-0.060000,-9.749999e-02,-35.200000,
-9.747999e-02,-0.080000,-9.747999e-02,-35.200000,
-9.745999e-02,-0.060000,-9.745999e-02,-35.200000,
-9.743999e-02,-0.060000,-9.743999e-02,-35.200000,
-9.741999e-02,-0.080000,-9.741999e-02,-35.200000,
-9.739999e-02,-0.080000,-9.739999e-02,-35.200000,
-9.737999e-02,-0.060000,-9.737999e-02,-35.200000,
-9.735999e-02,-0.080000,-9.735999e-02,-35.200000,
-9.733999e-02,-0.060000,-9.733999e-02,-35.599999,
-9.731999e-02,-0.060000,-9.731999e-02,-35.200000,
-9.729999e-02,-0.060000,-9.729999e-02,-35.200000,
-9.727999e-02,-0.080000,-9.727999e-02,-35.599999,
-9.725999e-02,-0.040000,-9.725999e-02,-35.599999,
-9.723999e-02,-0.060000,-9.723999e-02,-35.599999,
-9.721999e-02,-0.080000,-9.721999e-02,-35.599999,
-9.719999e-02,-0.060000,-9.719999e-02,-35.599999,
-9.717999e-02,-0.040000,-9.717999e-02,-35.200000,
-9.715999e-02,-0.060000,-9.715999e-02,-35.599999,
-9.713999e-02,-0.060000,-9.713999e-02,-35.599999,
-9.711999e-02,-0.040000,-9.711999e-02,-35.599999,
-9.709999e-02,-0.060000,-9.709999e-02,-35.599999,
-9.707999e-02,-0.060000,-9.707999e-02,-35.599999,
-9.705999e-02,-0.040000,-9.705999e-02,-35.599999,
-9.703999e-02,-0.040000,-9.703999e-02,-35.599999,
-9.701999e-02,-0.060000,-9.701999e-02,-35.599999,
-9.699999e-02,-0.040000,-9.699999e-02,-35.999999,
-9.697999e-02,-0.020000,-9.697999e-02,-35.599999,
-9.695999e-02,-0.040000,-9.695999e-02,-35.599999,
-9.693999e-02,-0.040000,-9.693999e-02,-35.599999,
-9.691999e-02,-0.020000,-9.691999e-02,-35.599999,
-9.689999e-02,-0.020000,-9.689999e-02,-35.999999,
-9.687999e-02,-0.040000,-9.687999e-02,-35.999999,
-9.685999e-02,-0.020000,-9.685999e-02,-35.999999,
-9.683999e-02,-0.020000,-9.683999e-02,-35.999999,
-9.681999e-02,-0.040000,-9.681999e-02,-35.999999,
-9.679999e-02,-0.040000,-9.679999e-02,-35.999999,
-9.677999e-02,-0.020000,-9.677999e-02,-35.999999,
-9.675999e-02,-0.040000,-9.675999e-02,-35.999999,
-9.673999e-02,-0.040000,-9.673999e-02,-36.400001,
-9.671999e-02,-0.020000,-9.671999e-02,-35.999999,
-9.669999e-02,-0.040000,-9.669999e-02,-35.999999,
-9.667999e-02,-0.040000,-9.667999e-02,-36.400001,
-9.665999e-02,-0.020000,-9.665999e-02,-35.999999,
-9.663999e-02,-0.020000,-9.663999e-02,-35.999999,
-9.661999e-02,-0.040000,-9.661999e-02,-35.999999,
-9.659999e-02,-0.040000,-9.659999e-02,-36.400001,
-9.657999e-02,-0.020000,-9.657999e-02,-36.400001,
-9.655999e-02,-0.040000,-9.655999e-02,-36.400001,
-9.653999e-02,-0.040000,-9.653999e-02,-36.400001,
-9.651999e-02,-0.020000,-9.651999e-02,-36.400001,
-9.649999e-02,-0.020000,-9.649999e-02,-36.400001,
-9.647999e-02,-0.040000,-9.647999e-02,-36.400001,
-9.645999e-02,-0.040000,-9.645999e-02,-36.400001,
-9.643999e-02,0.000000,-9.643999e-02,-36.400001,
-9.641999e-02,-0.040000,-9.641999e-02,-36.400001,
-9.639999e-02,-0.040000,-9.639999e-02,-36.400001,
-9.637999e-02,0.000000,-9.637999e-02,-36.400001,
-9.635999e-02,-0.020000,-9.635999e-02,-36.800001,
-9.633999e-02,-0.040000,-9.633999e-02,-36.800001,
-9.631999e-02,-0.020000,-9.631999e-02,-36.400001,
-9.629999e-02,-0.020000,-9.629999e-02,-36.400001,
-9.627999e-02,-0.040000,-9.627999e-02,-36.800001,
-9.625999e-02,-0.020000,-9.625999e-02,-36.800001,
-9.623999e-02,-0.020000,-9.623999e-02,-36.400001,
-9.621999e-02,-0.020000,-9.621999e-02,-36.400001,
-9.619999e-02,-0.040000,-9.619999e-02,-36.800001,
-9.617999e-02,0.000000,-9.617999e-02,-36.800001,
-9.615999e-02,-0.020000,-9.615999e-02,-36.400001,
-9.613999e-02,-0.040000,-9.613999e-02,-36.800001,
-9.611999e-02,-0.020000,-9.611999e-02,-36.800001,
-9.609999e-02,0.000000,-9.609999e-02,-36.800001,
-9.607999e-02,-0.040000,-9.607999e-02,-36.800001,
-9.605999e-02,-0.020000,-9.605999e-02,-36.800001,
-9.603999e-02,0.000000,-9.603999e-02,-36.800001,
-9.601999e-02,-0.020000,-9.601999e-02,-36.800001,
-9.599999e-02,-0.040000,-9.599999e-02,-36.800001,
-9.597999e-02,-0.020000,-9.597999e-02,-36.800001,
-9.595999e-02,-0.020000,-9.595999e-02,-36.800001,
-9.593999e-02,-0.040000,-9.593999e-02,-36.800001,
-9.591999e-02,-0.020000,-9.591999e-02,-36.800001,
-9.589999e-02,0.000000,-9.589999e-02,-36.800001,
-9.587999e-02,-0.020000,-9.587999e-02,-36.800001,
-9.585999e-02,-0.020000,-9.585999e-02,-36.800001,
-9.583999e-02,0.000000,-9.583999e-02,-36.800001,
-9.581999e-02,-0.020000,-9.581999e-02,-36.800001,
-9.579999e-02,-0.040000,-9.579999e-02,-36.800001,
-9.577999e-02,-0.020000,-9.577999e-02,-36.800001,
-9.575999e-02,-0.020000,-9.575999e-02,-36.800001,
-9.573999e-02,-0.040000,-9.573999e-02,-36.800001,
-9.571999e-02,-0.020000,-9.571999e-02,-36.800001,
-9.569999e-02,0.000000,-9.569999e-02,-36.800001,
-9.567999e-02,-0.020000,-9.567999e-02,-37.200000,
-9.565999e-02,-0.040000,-9.565999e-02,-36.800001,
-9.563999e-02,0.000000,-9.563999e-02,-36.800001,
-9.561999e-02,0.000000,-9.561999e-02,-36.800001,
-9.559999e-02,-0.040000,-9.559999e-02,-36.800001,
-9.557999e-02,-0.020000,-9.557999e-02,-36.800001,
-9.555999e-02,0.020000,-9.555999e-02,-37.200000,
-9.553999e-02,-0.040000,-9.553999e-02,-37.200000,
-9.551999e-02,-0.020000,-9.551999e-02,-36.800001,
-9.549999e-02,0.000000,-9.549999e-02,-37.200000,
-9.547999e-02,0.000000,-9.547999e-02,-37.200000,
-9.545999e-02,-0.020000,-9.545999e-02,-37.200000,
-9.543999e-02,0.000000,-9.543999e-02,-37.200000,
-9.541999e-02,0.020000,-9.541999e-02,-37.200000,
-9.539999e-02,-0.020000,-9.539999e-02,-37.200000,
-9.537999e-02,-0.020000,-9.537999e-02,-37.200000,
-9.535999e-02,0.020000,-9.535999e-02,-37.200000,
-9.533999e-02,0.000000,-9.533999e-02,-36.800001,
-9.531999e-02,-0.020000,-9.531999e-02,-37.200000,
-9.529999e-02,0.020000,-9.529999e-02,-37.200000,
-9.527999e-02,-0.020000,-9.527999e-02,-37.200000,
-9.525999e-02,-0.020000,-9.525999e-02,-37.200000,
-9.523999e-02,0.000000,-9.523999e-02,-37.200000,
-9.521999e-02,0.020000,-9.521999e-02,-37.200000,
-9.519999e-02,0.000000,-9.519999e-02,-37.200000,
-9.517999e-02,0.000000,-9.517999e-02,-37.200000,
-9.515999e-02,0.020000,-9.515999e-02,-37.200000,
-9.513999e-02,0.000000,-9.513999e-02,-37.200000,
-9.511999e-02,0.000000,-9.511999e-02,-37.200000,
-9.509999e-02,0.020000,-9.509999e-02,-37.200000,
-9.507999e-02,-0.020000,-9.507999e-02,-37.200000,
-9.505999e-02,0.000000,-9.505999e-02,-37.200000,
-9.503999e-02,0.000000,-9.503999e-02,-37.200000,
-9.501999e-02,0.000000,-9.501999e-02,-37.200000,
-9.499999e-02,0.000000,-9.499999e-02,-37.200000,
-9.497999e-02,-0.020000,-9.497999e-02,-37.200000,
-9.495999e-02,0.020000,-9.495999e-02,-37.200000,
-9.493999e-02,0.000000,-9.493999e-02,-36.800001,
-9.491999e-02,-0.020000,-9.491999e-02,-37.200000,
-9.489999e-02,0.020000,-9.489999e-02,-37.200000,
-9.487999e-02,0.000000,-9.487999e-02,-36.800001,
-9.485999e-02,0.020000,-9.485999e-02,-37.200000,
-9.483999e-02,0.000000,-9.483999e-02,-37.200000,
-9.481999e-02,0.000000,-9.481999e-02,-37.200000,
-9.479999e-02,0.020000,-9.479999e-02,-37.200000,
-9.477999e-02,0.000000,-9.477999e-02,-36.800001,
-9.475999e-02,0.040000,-9.475999e-02,-37.200000,
-9.473999e-02,0.020000,-9.473999e-02,-37.200000,
-9.471999e-02,0.020000,-9.471999e-02,-37.200000,
-9.469999e-02,0.040000,-9.469999e-02,-37.200000,
-9.467999e-02,0.020000,-9.467999e-02,-37.200000,
-9.465999e-02,0.040000,-9.465999e-02,-37.200000,
-9.463999e-02,0.020000,-9.463999e-02,-36.800001,
-9.461999e-02,0.020000,-9.461999e-02,-37.200000,
-9.459999e-02,0.020000,-9.459999e-02,-37.200000,
-9.457999e-02,0.020000,-9.457999e-02,-36.800001,
-9.455999e-02,0.040000,-9.455999e-02,-36.800001,
-9.453999e-02,0.020000,-9.453999e-02,-36.800001,
-9.451999e-02,0.040000,-9.451999e-02,-37.200000,
-9.449999e-02,0.040000,-9.449999e-02,-37.200000,
-9.447999e-02,0.040000,-9.447999e-02,-37.200000,
-9.445999e-02,0.040000,-9.445999e-02,-37.200000,
-9.443999e-02,0.020000,-9.443999e-02,-37.200000,
-9.441999e-02,0.040000,-9.441999e-02,-36.800001,
-9.439999e-02,0.040000,-9.439999e-02,-36.800001,
-9.437999e-02,0.020000,-9.437999e-02,-36.800001,
-9.435999e-02,0.040000,-9.435999e-02,-37.200000,
-9.433999e-02,0.020000,-9.433999e-02,-36.800001,
-9.431999e-02,0.040000,-9.431999e-02,-36.800001,
-9.429999e-02,0.040000,-9.429999e-02,-37.200000,
-9.427999e-02,0.020000,-9.427999e-02,-36.800001,
-9.425999e-02,0.060000,-9.425999e-02,-36.800001,
-9.423999e-02,0.040000,-9.423999e-02,-36.800001,
-9.421999e-02,0.040000,-9.421999e-02,-36.800001,
-9.419999e-02,0.040000,-9.419999e-02,-36.800001,
-9.417999e-02,0.040000,-9.417999e-02,-36.800001,
-9.415999e-02,0.060000,-9.415999e-02,-36.800001,
-9.413999e-02,0.040000,-9.413999e-02,-36.800001,
-9.411999e-02,0.040000,-9.411999e-02,-36.800001,
-9.409999e-02,0.060000,-9.409999e-02,-37.200000,
-9.407999e-02,0.040000,-9.407999e-02,-36.800001,
-9.405999e-02,0.060000,-9.405999e-02,-36.800001,
-9.403999e-02,0.040000,-9.403999e-02,-36.800001,
-9.401999e-02,0.060000,-9.401999e-02,-36.800001,
-9.399999e-02,0.060000,-9.399999e-02,-36.800001,
-9.397999e-02,0.040000,-9.397999e-02,-36.800001,
-9.395999e-02,0.060000,-9.395999e-02,-36.800001,
-9.393999e-02,0.040000,-9.393999e-02,-36.800001,
-9.391999e-02,0.040000,-9.391999e-02,-36.800001,
-9.389999e-02,0.040000,-9.389999e-02,-36.800001,
-9.387999e-02,0.040000,-9.387999e-02,-36.800001,
-9.385999e-02,0.060000,-9.385999e-02,-36.800001,
-9.383999e-02,0.040000,-9.383999e-02,-36.800001,
-9.381999e-02,0.060000,-9.381999e-02,-36.800001,
-9.379999e-02,0.060000,-9.379999e-02,-36.800001,
-9.377999e-02,0.040000,-9.377999e-02,-36.400001,
-9.375999e-02,0.060000,-9.375999e-02,-36.400001,
-9.373999e-02,0.060000,-9.373999e-02,-36.800001,
-9.371999e-02,0.060000,-9.371999e-02,-36.400001,
-9.369999e-02,0.060000,-9.369999e-02,-36.400001,
-9.367999e-02,0.060000,-9.367999e-02,-36.400001,
-9.365999e-02,0.060000,-9.365999e-02,-36.800001,
-9.363999e-02,0.040000,-9.363999e-02,-36.400001,
-9.361999e-02,0.060000,-9.361999e-02,-36.400001,
-9.359999e-02,0.060000,-9.359999e-02,-36.400001,
-9.357999e-02,0.040000,-9.357999e-02,-36.400001,
-9.355999e-02,0.060000,-9.355999e-02,-36.400001,
-9.353999e-02,0.040000,-9.353999e-02,-36.400001,
-9.351999e-02,0.060000,-9.351999e-02,-36.400001,
-9.349999e-02,0.060000,-9.349999e-02,-36.400001,
-9.347999e-02,0.060000,-9.347999e-02,-36.400001,
-9.345999e-02,0.060000,-9.345999e-02,-36.400001,
-9.343999e-02,0.040000,-9.343999e-02,-35.999999,
-9.341999e-02,0.060000,-9.341999e-02,-36.400001,
-9.339999e-02,0.060000,-9.339999e-02,-35.999999,
-9.337999e-02,0.060000,-9.337999e-02,-35.999999,
-9.335999e-02,0.060000,-9.335999e-02,-36.400001,
-9.333999e-02,0.060000,-9.333999e-02,-36.400001,
-9.331999e-02,0.060000,-9.331999e-02,-35.999999,
-9.329999e-02,0.040000,-9.329999e-02,-35.999999,
-9.327999e-02,0.060000,-9.327999e-02,-35.999999,
-9.325999e-02,0.060000,-9.325999e-02,-35.999999,
-9.323999e-02,0.040000,-9.323999e-02,-35.999999,
-9.321999e-02,0.060000,-9.321999e-02,-35.999999,
-9.319999e-02,0.060000,-9.319999e-02,-35.999999,
-9.317999e-02,0.060000,-9.317999e-02,-35.999999,
-9.315999e-02,0.040000,-9.315999e-02,-35.999999,
-9.313999e-02,0.040000,-9.313999e-02,-35.999999,
-9.311999e-02,0.040000,-9.311999e-02,-35.999999,
-9.309999e-02,0.040000,-9.309999e-02,-35.999999,
-9.307999e-02,0.060000,-9.307999e-02,-35.999999,
-9.305999e-02,0.060000,-9.305999e-02,-35.599999,
-9.303999e-02,0.040000,-9.303999e-02,-35.999999,
-9.301999e-02,0.040000,-9.301999e-02,-35.999999,
-9.299999e-02,0.040000,-9.299999e-02,-35.599999,
-9.297999e-02,0.060000,-9.297999e-02,-35.599999,
-9.295999e-02,0.060000,-9.295999e-02,-35.599999,
-9.293999e-02,0.060000,-9.293999e-02,-35.599999,
-9.291999e-02,0.060000,-9.291999e-02,-35.599999,
-9.289999e-02,0.040000,-9.289999e-02,-35.599999,
-9.287999e-02,0.060000,-9.287999e-02,-35.599999,
-9.285999e-02,0.080000,-9.285999e-02,-35.599999,
-9.283999e-02,0.060000,-9.283999e-02,-35.599999,
-9.281999e-02,0.060000,-9.281999e-02,-35.599999,
-9.279999e-02,0.060000,-9.279999e-02,-35.599999,
-9.277999e-02,0.060000,-9.277999e-02,-35.599999,
-9.275999e-02,0.060000,-9.275999e-02,-35.599999,
-9.273999e-02,0.060000,-9.273999e-02,-35.200000,
-9.271999e-02,0.060000,-9.271999e-02,-35.599999,
-9.269999e-02,0.060000,-9.269999e-02,-35.200000,
-9.267999e-02,0.060000,-9.267999e-02,-35.200000,
-9.265999e-02,0.060000,-9.265999e-02,-35.200000,
-9.263999e-02,0.060000,-9.263999e-02,-35.200000,
-9.261999e-02,0.060000,-9.261999e-02,-35.200000,
-9.259999e-02,0.040000,-9.259999e-02,-35.200000,
-9.257999e-02,0.060000,-9.257999e-02,-35.200000,
-9.255999e-02,0.040000,-9.255999e-02,-35.200000,
-9.253999e-02,0.040000,-9.253999e-02,-34.800000,
-9.251999e-02,0.060000,-9.251999e-02,-35.200000,
-9.249999e-02,0.040000,-9.249999e-02,-35.200000,
-9.247999e-02,0.040000,-9.247999e-02,-34.800000,
-9.245999e-02,0.040000,-9.245999e-02,-34.800000,
-9.243999e-02,0.040000,-9.243999e-02,-34.800000,
-9.241999e-02,0.040000,-9.241999e-02,-34.800000,
-9.239999e-02,0.040000,-9.239999e-02,-34.800000,
-9.237999e-02,0.040000,-9.237999e-02,-34.800000,
-9.235999e-02,0.020000,-9.235999e-02,-34.800000,
-9.233999e-02,0.020000,-9.233999e-02,-34.800000,
-9.231999e-02,0.040000,-9.231999e-02,-34.800000,
-9.229999e-02,0.040000,-9.229999e-02,-34.400001,
-9.227999e-02,0.040000,-9.227999e-02,-34.800000,
-9.225999e-02,0.040000,-9.225999e-02,-34.800000,
-9.223999e-02,0.040000,-9.223999e-02,-34.800000,
-9.221999e-02,0.020000,-9.221999e-02,-34.400001,
-9.219999e-02,0.020000,-9.219999e-02,-34.400001,
-9.217999e-02,0.020000,-9.217999e-02,-34.400001,
-9.215999e-02,0.020000,-9.215999e-02,-34.400001,
-9.213999e-02,0.020000,-9.213999e-02,-34.400001,
-9.211999e-02,0.020000,-9.211999e-02,-34.400001,
-9.209999e-02,0.020000,-9.209999e-02,-34.400001,
-9.207999e-02,0.020000,-9.207999e-02,-34.400001,
-9.205999e-02,0.020000,-9.205999e-02,-34.400001,
-9.203999e-02,0.020000,-9.203999e-02,-34.000001,
-9.201999e-02,0.020000,-9.201999e-02,-34.400001,
-9.199999e-02,0.000000,-9.199999e-02,-34.400001,
-9.197999e-02,0.020000,-9.197999e-02,-34.000001,
-9.195999e-02,0.020000,-9.195999e-02,-34.000001,
-9.193999e-02,0.020000,-9.193999e-02,-34.400001,
-9.191999e-02,0.020000,-9.191999e-02,-34.000001,
-9.189999e-02,0.020000,-9.189999e-02,-34.000001,
-9.187999e-02,0.020000,-9.187999e-02,-34.000001,
-9.185999e-02,0.020000,-9.185999e-02,-34.000001,
-9.183999e-02,0.000000,-9.183999e-02,-34.000001,
-9.181999e-02,0.020000,-9.181999e-02,-34.000001,
-9.179999e-02,0.020000,-9.179999e-02,-34.000001,
-9.177999e-02,0.020000,-9.177999e-02,-33.599999,
-9.175999e-02,0.000000,-9.175999e-02,-33.599999,
-9.173999e-02,0.000000,-9.173999e-02,-33.599999,
-9.171999e-02,0.020000,-9.171999e-02,-34.000001,
-9.169999e-02,0.000000,-9.169999e-02,-33.599999,
-9.167999e-02,0.000000,-9.167999e-02,-33.599999,
-9.165999e-02,0.000000,-9.165999e-02,-33.599999,
-9.163999e-02,0.000000,-9.163999e-02,-33.599999,
-9.161999e-02,-0.020000,-9.161999e-02,-33.599999,
-9.159999e-02,-0.020000,-9.159999e-02,-33.599999,
-9.157999e-02,-0.020000,-9.157999e-02,-33.599999,
-9.155999e-02,-0.020000,-9.155999e-02,-33.599999,
-9.153999e-02,-0.020000,-9.153999e-02,-33.599999,
-9.151999e-02,-0.020000,-9.151999e-02,-33.199999,
-9.149999e-02,-0.020000,-9.149999e-02,-33.199999,
-9.147999e-02,-0.020000,-9.147999e-02,-33.199999,
-9.145999e-02,-0.020000,-9.145999e-02,-33.599999,
-9.143999e-02,-0.020000,-9.143999e-02,-33.199999,
-9.141999e-02,-0.020000,-9.141999e-02,-33.199999,
-9.139999e-02,-0.020000,-9.139999e-02,-33.199999,
